World development indicators — wdi • mists
…
wdi

    Format

    An object of class tbl_df (inherits from tbl, data.frame) with 10850 rows and 57 columns.

    References

    The world bank databank

    Examples

wdi
#> # A tibble: 10,850 x 57
#>    country_code  year ag_lnd_frst_k2 ag_srf_totl_k2 bx_klt_dinv_cd_…
#>    <fct>        <int>          <dbl>          <dbl>            <dbl>
#>  1 ABW           1969             NA            180               NA
#>  2 ABW           1970             NA            180               NA
#>  3 ABW           1971             NA            180               NA
#>  4 ABW           1972             NA            180               NA
#>  5 ABW           1973             NA            180               NA
#>  6 ABW           1974             NA            180               NA
#>  7 ABW           1975             NA            180               NA
#>  8 ABW           1976             NA            180               NA
#>  9 ABW           1977             NA            180               NA
#> 10 ABW           1978             NA            180               NA
#> # … with 10,840 more rows, and 52 more variables: bx_trf_pwkr_cd_dt <dbl>,
#> #   dt_dod_dect_cd <dbl>, dt_oda_alld_cd <dbl>, dt_tds_dect_ex_zs <dbl>,
#> #   eg_use_elec_kh_pc <dbl>, eg_use_pcap_kg_oe <dbl>, en_atm_co2e_pc <dbl>,
#> #   en_pop_dnst <dbl>, er_h2o_fwtl_zs <dbl>, er_ptd_totl_zs <dbl>,
#> #   fs_ast_doms_gd_zs <dbl>, gc_rev_xgrt_gd_zs <dbl>, gc_tax_totl_gd_zs <dbl>,
#> #   ic_reg_durs <dbl>, iq_sci_ovrl <dbl>, it_cel_sets_p2 <dbl>,
#> #   ms_mil_xpnd_gd_zs <dbl>, ne_exp_gnfs_zs <dbl>, ne_gdi_totl_zs <dbl>,
#> #   ne_imp_gnfs_zs <dbl>, nv_agr_totl_zs <dbl>, nv_ind_totl_zs <dbl>,
#> #   ny_gdp_defl_kd_zg <dbl>, ny_gdp_mktp_cd <dbl>, ny_gdp_mktp_kd_zg <dbl>,
…
